#VRML V2.0 utf8

#========================================
#=============== Xwings =================
#========================================

# Xwing 1
DEF Xwing1 Transform {
	
	children [

		DEF Xwing1Transform Transform {
			scale 0.3 0.3 0.3
			rotation 0 1 0 1.57

			children [

				Inline {
					url	"xwingLP.wrl"
				},		
				
				# Position Xwing 1
				DEF	DeplacementXwing1 PositionInterpolator {
					key	[0.0 0.5 1.0]
					keyValue [
						140 0 -50,
						-10 0 -50,
				       -160 0 -50
					]
				}
			]
		},

		# Manoeuvre de roulis Xwing 1
		DEF	RoulisXwing1 OrientationInterpolator {
			key	[0.0 0.50 1.0]
			keyValue [
				1.0 0.0 0.0 0.0,
				1.0 0.0 0.0 3.14,
				1.0 0.0 0.0 6.28
			]
		}	
	]
}

# Xwing 2
DEF	Xwing2 Transform {
	scale 0.3 0.3 0.3
	rotation 0 1 0 -0.79
	
	children [

		DEF	Xwing2Transform Transform {
			rotation 1 0 0 -0.5

			children [

				Inline {
					url "xwingLP.wrl"
				},

				# Position Xwing 2
				DEF	DeplacementXwing2 PositionInterpolator {
					key	[0.0 0.5 1.0]
					keyValue [
						-150  150  150,
						   0    0  -30,
						 150 -150 -150
					]
				}
			]
		}
	]
}

# Xwing 3
DEF	Xwing3 Transform {
	translation	150 0 0
	center -150 0 0
	scale 0.3 0.3 0.3

	children [

		Transform {
			rotation 0 0 1 0.4

			children [
				Inline {
					url	"xwingLP.wrl"
				}
			]
		},

		# Rotation Xwing 3
		DEF	RotationXwing3 OrientationInterpolator {
			key	[0.0 0.5 1.0]
			keyValue [
				0 1 0    0,
				0 1 0 3.14, 
				0 1 0 6.28
			]
		}
	]
}

# Xwing 4
DEF	Xwing4 Transform {
	rotation 0 1 0 1.57
	scale 0.3 0.3 0.3

	children [

		Transform {
			rotation 1 0 0 0.2
			
			children [

				Inline {
					url	"xwingLP.wrl"
				}, 

				# Position Xwing 4
				DEF	DeplacementXwing4 PositionInterpolator {
					key	[0.0 0.5 1.0]
					keyValue [
						 150 -100 -80,
						   0    0 -80,
						 -150 100 -80
					 ]
				 }
			 ]							
		 }
	]
}

# Xwing 5
DEF	Xwing5 Transform {
	scale 0.3 0.3 0.3
	rotation 0 1 0 3.14
	
	children [
		
		Inline {
			url	"xwingLP.wrl"
		},

		# Position Xwing 5
		DEF	DeplacementXwing5 PositionInterpolator {
			key	[0.0 0.5 1.0]
			keyValue [
				-100 20 -300,
				-100 20    0, 
				-100 20  300
			]
		}
	]
}

# Xwing 6
DEF	Xwing6 Transform {
	rotation 0 0 1 -0.3
	translation	-130 20 0
	center 130 -20 0

	children [

		Transform {

			children [

				Inline {
					url	"xwingLP.wrl"
				},

				# Position Xwing 6
				DEF	RotationXwing6 OrientationInterpolator {
					key	[0.0 0.5 1.0]
					keyValue [
						0 1 0     0,
		     			0 1 0 -3.14,
		    		    0 1 0 -6.28,
					]
				}
			]
		}
	]
}

#========================================
#================= Tie ==================
#========================================

# Chasseur Tie 1
DEF Tie1 Transform {
	
	children [
	
		DEF Tie1Transform Transform {			
			scale 0.4 0.4 0.4
			rotation 0 1 0 1.57

			children [

				Inline { 
					url	"tieLowPoly.wrl"
				}

				# Capteur de clic Tie 1
				DEF TouchTie1 TouchSensor{}

				# Capteur de visibilité Tie 1
				DEF Tie1Visible VisibilitySensor {}
			]
		}		
	]
}

# Chasseur Tie 2
DEF	Tie2 Transform {
	
	children [

		DEF	Tie2Transform Transform	{
			scale 0.4 0.4 0.4
		    rotation 0 1 0 -1.57
			
			children [

				Inline {
					url	"tieLowPoly.wrl"
				},
				 
				# Capteur de clic Tie 2
				DEF TouchTie2 TouchSensor{}

				# Capteur de visibilité Tie 2
			    DEF Tie2Visible VisibilitySensor {}
			 ]
		 }
	 ]
 }

 # Chasseur Tie 3
 DEF Tie3 Transform	{
	 rotation 0 1 0 3.0

	 children [

		 DEF Tie3Transform Transform {
			 scale 0.4 0.4 0.4
			 rotation 1 0 0 0.5

			 children [
				 
				Inline	{
				  url "tieLowPoly.wrl"
				}

				# Capteur de clic Tie 3
				DEF	TouchTie3 TouchSensor {}

				# Capteur de visibilité Tie 3
				DEF Tie3Visible VisibilitySensor {}
			]
		}
	]
}

# Chasseur Tie 4
DEF Tie4 Transform {	
	translation	0 25 0
	center 0 -25 0

	children [
	
	    DEF	tieTournant4 Transform {
			rotation 0 1 0 3.1415

			children [
			
				Inline {
					url	[
						"TieLowPoly.wrl"
					]
				}

				# Capteur de clic Tie 4
				DEF TouchTie4 TouchSensor {}
				
				#  Capteur de visibilité Tie 4
				DEF Tie4Visible VisibilitySensor {}
			]	
		}	
	]
}

# Chasseur Tie 5
DEF Tie5 Transform {
	translation	50 -25 0
	center -50 -25 0

	children	[
	
	    DEF	tieTournant5 Transform {
	
			children [
	
				Inline {
					url	[
						"TieLowPoly.wrl"
					]
				}

				# Capteur de clic Tie 5
				DEF TouchTie5 TouchSensor {}

				# Capteur de visibilité Tie 5
				DEF Tie5Visible VisibilitySensor {}
			]	
		}	
	]
}

# Chasseur Tie 6
DEF Tie6 Transform {
	translation	50 0 0
	center -50 -60 0

	children [

	    DEF	tieTournant6 Transform {

			children [

				Inline {
					url	[
						"TieLowPoly.wrl"
					]
				}

				# Capteur de clic Tie 6
				DEF TouchTie6 TouchSensor {}
			   
				# Capteur de visibilité Tie 6 
				DEF Tie6Visible VisibilitySensor {}
			]	
		}	
	]
}

# Chasseur Tie 7
DEF Tie7 Transform {
	translation	-15 35 -15
	center -25 50 0

	children [

	    DEF	tieTournant7 Transform {
		
			children [
			
				Inline {
					url	[
						"TieLowPoly.wrl"
					]
				}

				# Capteur de clic Tie 7
				DEF TouchTie7 TouchSensor {}

				# Capteur de visibilité Tie 7
				DEF Tie7Visible VisibilitySensor {}
			]	
		}	
	]
}

# Chasseur Tie 8
DEF Tie8 Transform {
	translation	-14 5 45
	center 0 -14 0
    
	children [

	    DEF	tieTournant8 Transform {
			rotation 0 1 0 1.57
		
			children [
		
				Inline {
					url	[
						"TieLowPoly.wrl"
					]
				}
		
				# Capteur de clic Tie 8
				DEF TouchTie8 TouchSensor {}

				# Capteur de visibilité Tie 8
				DEF Tie8Visible VisibilitySensor {}
			]	
		}	
	]
}

# Chasseur Tie 9
DEF Tie9 Transform {
	translation	90 5 0
	scale 0.2 0.2 0.2
	center -90 0 0

	children [

	    DEF	tieTournant9 Transform {

			children [

				Inline {
					url	[
						"TieLowPoly.wrl"
					]
				}

				# Capteur de clic Tie 9
				DEF TouchTie9 TouchSensor {}

				# Capteur de visibilité Tie 9
				DEF Tie9Visible VisibilitySensor {}
			]	
		}	
	]
}

# Chasseur Tie 10
DEF Tie10 Transform {
	translation	70 -60 21
	scale 0.5 0.5 0.5
	center -70 60 -21
	
	children	[
	
	    DEF	tieTournant10 Transform {
	
			children [
	
				Inline {
					url	[
						"TieLowPoly.wrl"
					]
				}
				
				# Capteur de clic Tie 10
				DEF TouchTie10 TouchSensor {}

				# Capteur de visibilité Tie 10
				DEF Tie10Visible VisibilitySensor {}
			]	
		}	
	]
}

# Chasseur Tie 11
DEF Tie11 Transform {
	translation	-25 -8 -84
	scale 0.5 0.5 0.5
	center 28 15 84

	children [

	    DEF	tieTournant11 Transform {

			children [

				Inline {
					url	[
						"TieLowPoly.wrl"
					]
				}

				# Capteur de clic Tie 11
				DEF TouchTie11 TouchSensor {}

				# Capteur de visibilité Tie 11
				DEF Tie11Visible VisibilitySensor {}
			]	
		}	
	]
}

# Tie 12
DEF Tie12 Transform {
	translation	-150 -20 51
	scale 0.5 0.5 0.5
	center 150  -20  -51
	
	children	[
	
	    DEF	tieTournant12 Transform {
			rotation 0 1 0 3.1415
	
			children [
	
				Inline {
					url	[
						"TieLowPoly.wrl"
					]
				}
				
				# Capteur de clic Tie 12
				DEF TouchTie12 TouchSensor {}

				# Capteur de visibilité Tie 12
				DEF Tie12Visible VisibilitySensor {}
			]	
		}	
	]
}

# Chasseur Tie 13
DEF Tie13 Transform {
	translation	150 20 -51
	scale 0.5 0.5 0.5
	center -150 -20 62

	children	[
	
	    DEF	tieTournant13 Transform {
	
			children [
	
				Inline {
					url	[
						"TieLowPoly.wrl"
					]
				}
				
				# Capteur de clic Tie 13
				DEF TouchTie13 TouchSensor {}

				# Capteur de visibilité Tie 13
				DEF Tie13Visible VisibilitySensor {}
			]	
		}	
	]
}


#========================================
#============= Groupe Tie ===============
#========================================

# Groupe Chasseur Tie 1
DEF	groupeTie1 Transform {
	rotation 1 0 0 0.785

	children [

		Transform {
			translation	0 0 0
			scale 0.4 0.4 0.4
			rotation 0 1 0 -1.57

			children [

				Inline {
					url	"tieLowPoly.wrl"
				},
			    
				# Capteur de clic Groupe 1 Tie 1
				DEF TouchGrp11 TouchSensor{}

				# Capteur de visibilité Groupe 1 Tie 1
				DEF TieGr11Visible VisibilitySensor {}
			]
		},
		
		Transform {
			translation	-5 0 -5
			scale 0.4 0.4 0.4
			rotation 0 1 0 -1.57

			children [
			
				Inline {
					url	"tieLowPoly.wrl"
				},

				# Capteur de clic Groupe 1 Tie 2
				DEF TouchGrp12 TouchSensor{}

				# Capteur de visibilité Groupe 1 Tie 2
				DEF TieGr12Visible VisibilitySensor {}
			]
		},

		Transform {
			translation	0 0 -10
			scale 0.4 0.4 0.4
			rotation 0 1 0 -1.57
			
			children [
			
				Inline {
					url	"tieLowPoly.wrl"
				},
				
				# Capteur de clic Groupe 1 Tie 3
				DEF TouchGrp13 TouchSensor{}

				# Capteur de visibilité Groupe 1 Tie 3
				DEF TieGr13Visible VisibilitySensor {}
			]
		},

		Transform {
			translation	5 0 5
			scale 0.4 0.4 0.4
			rotation 0 1 0 -1.57

			children [
			
				Inline {
					url	"tieLowPoly.wrl"
				},
				
				# Capteur de clic Groupe 1 Tie 4
				DEF TouchGrp14 TouchSensor{}

				# Capteur de visibilité Groupe 1 Tie 4
				DEF TieGr14Visible VisibilitySensor {}
			]
		},

		Transform {
			translation	0 0 5
			scale 0.4 0.4 0.4
			rotation 0 1 0 -1.57

			children [
			
				Inline {
					url	"tieLowPoly.wrl"
				},
				
				# Capteur de clic Groupe 1 Tie 5
				DEF TouchGrp15 TouchSensor{}

				# Captuer de visibilité Groupe 1 Tie 5
				DEF TieGr15Visible VisibilitySensor {}
			]
		}
	]
}

# Groupe Chasseur Tie 2
DEF	groupeTie2 Transform {
	rotation 0 1 0 -1.57

	children [

		Transform {
			translation	3 3 0
			rotation 0 0 1 -0.2
			scale 0.3 0.3 0.3

			children [

				Inline {
					url	"tieLowPoly.wrl"
				}

				# Capteur de clic Groupe 2 Tie 1
				DEF TouchGrp21 TouchSensor{}

				# Capteur de visibilité Groupe 2 Tie 1
				DEF TieGr21Visible VisibilitySensor {}
			]
		},

		Transform {
			translation	0 0 0 
			rotation 0 0 1 -0.2
			scale 0.3 0.3 0.3

			children [

				Inline {
					url	"tieLowPoly.wrl"
				}

				# Capteur de clic Groupe 2 Tie 2
				DEF TouchGrp22 TouchSensor{}

				# Capteur de visibilité Groupe 2 Tie 2
				DEF TieGr22Visible VisibilitySensor {}
			]

		},

		Transform {
			translation	-3 -3 0
			rotation 0 0 1 -0.2
			scale 0.3 0.3 0.3

			children [

				Inline {
					url	"tieLowPoly.wrl"
				}

				# Capteur de clic Groupe 2 Tie 3
				DEF TouchGrp23 TouchSensor{}

				# Capteur de visibilité Groupe 2 Tie 3
				DEF TieGr23Visible VisibilitySensor {}
			]
		}
	]
}

# Groupe Chasseur Tie 3
DEF	groupeTie3 Transform	{
	rotation 1 0 0 0.785

	children [

		Transform {
			translation	0 0 0
			scale 0.4 0.4 0.4
		
			children [
		
				Inline {
					url	"tieLowPoly.wrl"
				},
				
				# Capteur de clic Groupe 3 Tie 1	    
				DEF TouchGrp31 TouchSensor{}

				# Capteur de visibilité Groupe 3 Tie 1
				DEF TieGr31Visible VisibilitySensor {}
			]
		},
		
		Transform {
			translation	-5 0 -5
			scale 0.4 0.4 0.4
		
			children [
				
				Inline {
					url	"tieLowPoly.wrl"
				},

				# Capteur de clic Groupe 3 Tie 2
				DEF TouchGrp32 TouchSensor{}

				# Capteur de visibilité Groupe 3 Tie 2
				DEF TieGr32Visible VisibilitySensor {}
			]
		},

		Transform {
			translation	0 0 -10
			scale 0.4 0.4 0.4

			children [
				
				Inline {
					url	"tieLowPoly.wrl"
				},
		
				# Capteur de clic Groupe 3 Tie 3
				DEF TouchGrp33 TouchSensor{}

				# Capteur de clic Groupe 3 Tie 3
				DEF TieGr33Visible VisibilitySensor {}
			]
		},

		Transform {
			translation	5 0 5
			scale 0.4 0.4 0.4

			children [
				
				Inline {
					url	"tieLowPoly.wrl"
				},

				# Capteur de clic Groupe 3 Tie 4
				DEF TouchGrp34 TouchSensor{}

				# Capteur de clic Groupe 3 Tie 4
				DEF TieGr34Visible VisibilitySensor {}
			]
		},

		Transform {
			translation	0 0 5
			scale 0.4 0.4 0.4

			children [
				
				Inline {
					url	"tieLowPoly.wrl"
				},

				# Capteur de clic Groupe 3 Tie 5
				DEF TouchGrp35 TouchSensor{}

				# Capteur de visibilité Groupe 3 Tie 5
				DEF TieGr35Visible VisibilitySensor {}
			]
		}
	]
}


#========================================
#=============== Horloges ================
#========================================

# Horloge Manoeuvre Roulis
DEF	HorlogeRoulis TimeSensor {
	cycleInterval 1
	loop TRUE
}

# Horloge Xwing Type 1
DEF	HorlogeXwing1 TimeSensor {
	cycleInterval 15
	loop TRUE
}

# Horloge Xwing Type 2
DEF	HorlogeXwing2 TimeSensor {
	cycleInterval 20
	loop TRUE
}

# Horloge Xwing Type 3
DEF	HorlogeXwing3 TimeSensor {
	cycleInterval 10
	loop TRUE
}

# Horloge Tie 1
DEF	HorlogeTie1 TimeSensor {
	cycleInterval 15
	loop TRUE
}

# Horloge Tie 2
DEF	HorlogeTie2 TimeSensor {
	cycleInterval 15
	loop TRUE
}

# Horloge Tie 3
DEF HorlogeTie3 TimeSensor	{
	cycleInterval 15
	loop TRUE
}

# Horloge Tie 4
DEF HorlogeTie4 TimeSensor	{
	cycleInterval 10
	loop TRUE
}

# Horloge Tie 5
DEF HorlogeTie5 TimeSensor {
	cycleInterval 6
	loop TRUE
}

# Horloge Tie 6
DEF HorlogeTie6 TimeSensor {
	cycleInterval 10
	loop TRUE
}

# Horloge Tie 7
DEF HorlogeTie7 TimeSensor {
	cycleInterval 10
	loop TRUE
}

# Horloge Tie 8
DEF HorlogeTie8 TimeSensor {
	cycleInterval 2
	loop TRUE
}

# Horloge Tie 9
DEF HorlogeTie9 TimeSensor {
	cycleInterval 10
	loop TRUE
}

# Horloge Tie 10
DEF HorlogeTie10 TimeSensor {
	cycleInterval 10
	loop TRUE
}

# Horloge Tie 11
DEF HorlogeTie11 TimeSensor {
	cycleInterval 10
	loop TRUE
}

# Horloge Tie 12
DEF HorlogeTie12 TimeSensor {
	cycleInterval 10
	loop TRUE
}

# Horloge Tie 13
DEF HorlogeTie13 TimeSensor {
	cycleInterval 4
	loop TRUE
}

# Horloge Groupe Tie 1
DEF	HorlogeGroupeTie1 TimeSensor {
	cycleInterval 13
	loop TRUE
}

# Horloge Groupe Tie 2
DEF	HorlogeGroupeTie2 TimeSensor {
	cycleInterval 20
	loop TRUE
}

# Horloge Groupe Tie 3
DEF	HorlogeGroupeTie3 TimeSensor {
	cycleInterval 13
	loop TRUE
}

#========================================
#============== Animation ===============
#========================================

# Position Tie 1
DEF	DeplacementTie1 PositionInterpolator {
	key	[0.0 0.5 1.0]
	keyValue [
		120 0 -50,
		-30 0 -50,
	   -180 0 -50
	]
}

# Rotation Tie 1
DEF	RoulisTie1 OrientationInterpolator {
	key	[0.0 0.50 1.0]
	keyValue [
		1.0 0.0 0.0  0.0,
		1.0 0.0 0.0 3.14,
		1.0 0.0 0.0 6.28
	]
}

# Position Tie 2
DEF	DeplacementTie2	PositionInterpolator {
	 key [0.0 0.50 1.0]
	 keyValue [
		-150 15 -20, 
	       0 15 -20,
		 150 15 -20
	 ]
}
# Position Tie 3
DEF DeplacementTie3 PositionInterpolator {
	key [0.0 0.50 1.0]
	keyValue [
		  150 -150 -150,
		  -30   30    0,
		 -200  150  150
	] 
}

# Position Tie 4
DEF TrajectoireTie4 OrientationInterpolator {
	key [ 0.0,0.25,0.5,0.75 ,1.0 ]
	keyValue [ 1.0 0.0 0.0 0.0
			   1.0 0.0 0.0 1.57
			   1.0 0.0 0.0 3.14
			   1.0 0.0 0.0 4.71
			   1.0 0.0 0.0 6.28 
	]
}

# Position Tie 5
DEF TrajectoireTie5 OrientationInterpolator {
	key [ 0.0,0.25,0.5,0.75 ,1.0 ]
	keyValue [ 0.0 1.0 0.0  0.0
			   0.0 1.0 0.0 1.57
			   0.0 1.0 0.0 3.14
			   0.0 1.0 0.0 4.71
			   0.0 1.0 0.0 6.28 
	]
}

# Position Tie 6
DEF TrajectoireTie6 OrientationInterpolator {
	key [ 0.0,0.25,0.5,0.75 ,1.0 ]
	keyValue [ 0.0 1.0 0.0  0.0
			   0.0 1.0 0.0 1.57
			   0.0 1.0 0.0 3.14
			   0.0 1.0 0.0 4.71
			   0.0 1.0 0.0 6.28 
	]
}

# Position Tie 7
DEF TrajectoireTie7 OrientationInterpolator {
	key [ 0.0,0.25,0.5,0.75 ,1.0 ]
	keyValue [ 0.0 1.0 0.0  0.0
			   1.0 1.0 0.0 1.57
			   1.0 1.0 0.0 3.14
			   1.0 1.0 0.0 4.71
			   1.0 1.0 0.0 6.28 
	]
}

# Position Tie 8
DEF TrajectoireTie8 OrientationInterpolator {
	key [ 0.0,0.25,0.5,0.75 ,1.0 ]
	keyValue [ 0.0 1.0 1.0  0.0
			   0.0 1.0 1.0 1.57
			   0.0 1.0 1.0 3.14
			   0.0 1.0 1.0 4.71
			   0.0 1.0 1.0 6.28 
	]
}

# Position Tie 9
DEF TrajectoireTie9 OrientationInterpolator {
	key [ 0.0,0.25,0.5,0.75 ,1.0 ]
	keyValue [ 0.0 1.0 0.0  0.0
			   0.0 1.0 0.0 1.57
			   0.0 1.0 0.0 3.14
			   0.0 1.0 0.0 4.71
			   0.0 1.0 0.0 6.28 
	]
}

# Position Tie 10
DEF TrajectoireTie10 OrientationInterpolator {
	key [ 0.0,0.25,0.5,0.75 ,1.0 ]
	keyValue [ 1.0 1.0 1.0  0.0
			   1.0 1.0 1.0 1.57
			   1.0 1.0 1.0 3.14
			   1.0 1.0 1.0 4.71
			   1.0 1.0 1.0 6.28 
	]
}

# Postion Tie 11
DEF TrajectoireTie11 OrientationInterpolator {
	key [ 0.0,0.25,0.5,0.75 ,1.0 ]
	keyValue [ 1.0 0.0 1.0  0.0
			   1.0 0.0 1.0 1.57
			   1.0 0.0 1.0 3.14
			   1.0 0.0 1.0 4.71
			   1.0 0.0 1.0 6.28 
	]
}

# Position Tie 12
DEF TrajectoireTie12 OrientationInterpolator {
	key [ 0.0,0.25,0.5,0.75 ,1.0 ]
	keyValue [ 1.0 1.0 0.0   0.0
			   1.0 1.0 0.0 -1.57
			   1.0 1.0 0.0 -3.14
			   1.0 1.0 0.0 -4.71
			   1.0 1.0 0.0 -6.28 ]
}

# Position Tie 13
DEF TrajectoireTie13 OrientationInterpolator {
	key [ 0.0,0.25,0.5,0.75 ,1.0 ]
	keyValue [ 1.0 1.0 1.0 0.0
			   1.0 1.0 1.0 1.57
			   1.0 1.0 1.0 3.14
			   1.0 1.0 1.0 4.71
			   1.0 1.0 1.0 6.28 
	]
}

# Position Groupe Tie 1
DEF	DeplacementGroupeTie1 PositionInterpolator {
	key	[0.0 0.5 1.0]
	keyValue [
		-150 -150  150,
     	   0    0   50,
         150  150 -150
	]
}

# Position Groupe Tie 2
DEF	DeplacementGroupeTie2 PositionInterpolator { 
	key	[0.0 0.50 1.0]
	keyValue [
		-150 100  -80,
		   0   0  -80,
		 150 -100 -80
	 ]
}

# Position Groupe Tie 3
DEF	DeplacementGroupeTie3 PositionInterpolator {
	key	[0.0 0.5 1.0]
	keyValue [
		150 150 -150,
	   	  0   0  -50,
	   -150 -150 150
	]
} 	  

#Script permettant d'effectuer une manoeuvre de roulis
DEF	scriptDéclenchementManoeuvreRoulisComplete Script{
	eventIn		SFFloat	DeclencheRoulis
	eventOut	SFBool  topRoulis


	url       "javascript:
	function DeclencheRoulis(time) {
 		if(time >= 0.5 && time <= 0.57){
			topRoulis = true;
		} else {
			topRoulis = false;
		}
	}
	"
}

#ROUTES
ROUTE HorlogeXwing1.fraction_changed TO scriptDéclenchementManoeuvreRoulisComplete.DeclencheRoulis
ROUTE scriptDéclenchementManoeuvreRoulisComplete.topRoulis TO HorlogeRoulis.enabled

ROUTE HorlogeRoulis.fraction_changed TO	RoulisXwing1.set_fraction
ROUTE RoulisXwing1.value_changed TO	Xwing1.rotation

ROUTE HorlogeTie1.fraction_changed TO	DeplacementTie1.set_fraction
ROUTE DeplacementTie1.value_changed TO Tie1.translation

ROUTE HorlogeRoulis.fraction_changed TO	RoulisTie1.set_fraction
ROUTE RoulisTie1.value_changed TO	Tie1.rotation

ROUTE HorlogeXwing1.fraction_changed TO	DeplacementXwing1.set_fraction
ROUTE DeplacementXwing1.value_changed TO Xwing1.translation

ROUTE HorlogeXwing1.fraction_changed TO	DeplacementXwing2.set_fraction
ROUTE DeplacementXwing2.value_changed TO Xwing2.translation

ROUTE HorlogeXwing1.fraction_changed TO	RotationXwing3.set_fraction
ROUTE RotationXwing3.value_changed TO Xwing3.rotation

ROUTE HorlogeXwing2.fraction_changed TO	DeplacementXwing4.set_fraction
ROUTE DeplacementXwing4.value_changed TO Xwing4.translation

ROUTE HorlogeXwing2.fraction_changed TO	DeplacementXwing5.set_fraction
ROUTE DeplacementXwing5.value_changed TO Xwing5.translation

ROUTE HorlogeXwing3.fraction_changed TO	RotationXwing6.set_fraction
ROUTE RotationXwing6.value_changed TO Xwing6.rotation

ROUTE HorlogeTie2.fraction_changed TO DeplacementTie2.set_fraction
ROUTE DeplacementTie2.value_changed	TO Tie2.translation

ROUTE HorlogeTie3.fraction_changed TO DeplacementTie3.set_fraction
ROUTE DeplacementTie3.value_changed	TO Tie3.translation

ROUTE HorlogeTie4.fraction_changed TO TrajectoireTie4.set_fraction
ROUTE TrajectoireTie4.value_changed TO Tie4.set_rotation

ROUTE HorlogeTie5.fraction_changed TO TrajectoireTie5.set_fraction
ROUTE TrajectoireTie5.value_changed TO Tie5.set_rotation

ROUTE HorlogeTie6.fraction_changed TO TrajectoireTie6.set_fraction
ROUTE TrajectoireTie6.value_changed TO Tie6.set_rotation

ROUTE HorlogeTie7.fraction_changed TO TrajectoireTie7.set_fraction
ROUTE TrajectoireTie7.value_changed TO Tie7.set_rotation

ROUTE HorlogeTie8.fraction_changed TO TrajectoireTie8.set_fraction
ROUTE TrajectoireTie8.value_changed TO Tie8.set_rotation

ROUTE HorlogeTie9.fraction_changed TO TrajectoireTie9.set_fraction
ROUTE TrajectoireTie9.value_changed TO Tie9.set_rotation

ROUTE HorlogeTie10.fraction_changed TO TrajectoireTie10.set_fraction
ROUTE TrajectoireTie10.value_changed TO Tie10.set_rotation

ROUTE HorlogeTie11.fraction_changed TO TrajectoireTie11.set_fraction
ROUTE TrajectoireTie11.value_changed TO Tie11.set_rotation

ROUTE HorlogeTie12.fraction_changed TO TrajectoireTie12.set_fraction
ROUTE TrajectoireTie12.value_changed TO Tie12.set_rotation

ROUTE HorlogeTie13.fraction_changed TO TrajectoireTie13.set_fraction
ROUTE TrajectoireTie13.value_changed TO Tie13.set_rotation	

ROUTE HorlogeGroupeTie1.fraction_changed TO	DeplacementGroupeTie1.set_fraction
ROUTE DeplacementGroupeTie1.value_changed TO groupeTie1.translation

ROUTE HorlogeGroupeTie2.fraction_changed TO	DeplacementGroupeTie2.set_fraction
ROUTE DeplacementGroupeTie2.value_changed TO groupeTie2.translation

ROUTE HorlogeGroupeTie3.fraction_changed TO	DeplacementGroupeTie3.set_fraction
ROUTE DeplacementGroupeTie3.value_changed TO groupeTie3.translation

