#VRML V2.0 utf8



DEF vue Viewpoint {
	position 0 0 10
	orientation	0 0 1 0
}





#Senseur de proximité
DEF Proxi ProximitySensor {	   # Détecteur de proximité qui englobe l'observateur
   size 10000 100000 10000
   center 75 30 200
}

#HUD, interface entre le monde et l'utilisateur contenant des boutons
DEF HUD Transform {
   translation 0 0 10
   children [
      Collision {
         collide FALSE	
         children [

					  
			
			 Transform {
				 translation 0 -0.075 -0.2
				 children [

					  Transform	{
						  translation 0 0.075 0
						  children [

							  #Rectangle
                			  Shape {
                    			 appearance Appearance {
                        			material Material {
                        			   diffuseColor 0.8 0.1 0.8
									   transparency	0.8
                        			}
                    			 }
                    			 geometry Box {
                        			size 0.36 0.18 0.000000001
                    			 }
                			  }


							  DEF survoleHUDTouchSensor TouchSensor {

							 }	  
						  ]
					  }
					  
				 



					 #Palette montrant le nombre d'images par secondes
					 DEF paletteFPS Transform {
						 translation 0.050 0.025 0.005
						 children [
							Shape {
								geometry Box {
									size 0.025 0.008 0.0001
								}

								appearance Appearance
								{
									material Material {
										diffuseColor 0.1 0.1 0.1
									}
								}
							}

							Transform {
								translation	-0.0005 0.0007 0.005
								children [
									 Shape {
										geometry DEF texteHitPoint Text {
											fontStyle FontStyle	{
												family "CALIBRI"
												size 0.003
												justify	"MIDDLE"
												style "BOLD" 		
											}
											string "hitpoint"
										}

										appearance Appearance {
											material Material {
												emissiveColor 1 1 0
											}
										}
									}
								]
							}
						]
					}



					#Palette montrant le nombre d'images par secondes
					 DEF paletteFPS2 Transform {
						 translation 0.050 0.01 0.005
						 children [
							Shape {
								geometry Box {
									size 0.025 0.008 0.0001
								}

								appearance Appearance
								{
									material Material {
										diffuseColor 0.1 0.1 0.1
									}
								}
							}

							Transform {
								translation	-0.0005 0.0007 0.005
								children [
									 Shape {
										geometry DEF texteHitTex Text {
											fontStyle FontStyle	{
												family "CALIBRI"
												size 0.003
												justify	"MIDDLE"
												style "BOLD" 		
											}
											string "hitnormal"
										}

										appearance Appearance {
											material Material {
												emissiveColor 1 1 0
											}
										}
									}
								]
							}
						]
					}
				 

					
				 
				 
				 ]
			 }

			 

			 



		 ]
	  }
   ]
}





Transform {
	 translation 0 0 -0
	children [
	
		Shape {
			appearance Appearance {
				material Material {
					diffuseColor 0 0 1
				}
			}

			geometry Box {
				size 2 2 2
			}


		}
	
	
	]
}

Transform {
	translation	0 0 20

	children [
	
		Shape {
			appearance Appearance {
				material Material {
					diffuseColor 0 0 1
				}
			}

			geometry Box {
				size 2 2 2
			}


		}
	
	
	]
}

Transform {
	 translation 10 0 10
	children [
	
		Shape {
			appearance Appearance {
				material Material {
					diffuseColor 1 0 0
				}
			}

			geometry Box {
				size 2 2 2
			}


		}
	
	
	]
}
Transform {
	translation -10 0 10
	children [
	
		Shape {
			appearance Appearance {
				material Material {
					diffuseColor 1 0 0
				}
			}

			geometry Box {
				size 2 2 2
			}


		}
	
	
	]
}


Transform {
	translation 0 10 10
	children [
	
		Shape {
			appearance Appearance {
				material Material {
					diffuseColor 0 1 0
				}
			}

			geometry Box {
				size 2 2 2
			}


		}
	
	
	]
}

Transform {
	translation 0 -10 10
	children [
	
		Shape {
			appearance Appearance {
				material Material {
					diffuseColor 0 1 0
				}
			}

			geometry Box {
				size 2 2 2
			}


		}
	
	
	]
}



#Afficher les FPS (Frames Per Seconds)
#DEF hitPoint Script { 
#    eventIn SFVec3f set_hit_point 
#    eventOut MFString coord 
#    url "javascript: 
#    function set_hit_point(hitpoint,temps ) 
#    {	
#        coord[0] = hitpoint[0] + '  ' + hitpoint[1] + '  ' +hitpoint[2];
#    }" 
#}


#Afficher les FPS (Frames Per Seconds)
#DEF rotation Script { 
#    eventIn SFVec3f set_rotation 
#    eventOut SFVec3f coord 
#    url "javascript: 
#    function set_rotation(hitpoint,temps ) 
#    {	
#        coord[0] = hitpoint[0]*10;
#		coord[1] = hitpoint[1]*10;
#		coord[2] = hitpoint[2]*10 + 10;

#    }" 
#}




#DEF position Script { 
#    eventIn SFVec3f set_hit_rotation
#    eventOut MFString coord 
#    url "javascript: 
#    function set_hit_rotation(hitrotation,temps ) 
#    {	
#        coord[0] = Math.sqrt(Math.pow(hitrotation[0],2) + Math.pow(hitrotation[1],2) + Math.pow(hitrotation[2],2) ) ;
#    }" 
#}




DEF calculRotation Script { 
    eventIn SFVec3f set_rotation
    field SFFloat coef 0
	field SFFloat vitesse 15
    eventOut SFRotation coord 
    url "javascript: 
    function set_rotation(hitrotation,temps ) 
    {	
		coef = Math.sqrt(Math.pow(hitrotation[0],2) + Math.pow(hitrotation[1],2) + Math.pow(hitrotation[2],2) ) ;

        coord[0] = hitrotation[1];
		coord[1] = -hitrotation[0];
		coord[2] = hitrotation[2];
		coord[3] = coef*vitesse;





		


    }" 
}


#Routes (Interactions)
#Avatar/Observateur
#Liaison du HUD avec l'observateur
ROUTE Proxi.orientation_changed TO HUD.set_rotation		 
ROUTE Proxi.position_changed    TO HUD.set_translation    
ROUTE Proxi.position_changed    TO Proxi.set_center	

#ROUTE survoleHUDTouchSensor.hitPoint_changed TO	hitPoint.set_hit_point
#ROUTE hitPoint.coord TO	texteHitPoint.string

#ROUTE survoleHUDTouchSensor.hitPoint_changed TO position.set_hit_rotation
#ROUTE position.coord TO	texteHitTex.string

ROUTE survoleHUDTouchSensor.hitPoint_changed TO	calculRotation.set_rotation
ROUTE calculRotation.coord TO vue.orientation
#ROUTE survoleHUDTouchSensor.hitPoint_changed TO rotation.set_rotation
#ROUTE rotation.coord TO	vue.position

