#VRML V2.0 utf8

#HUD, interface entre le monde et l'utilisateur contenant des boutons
DEF titleScreen Transform {
   translation 0 0 10
   children [
      Collision {
         collide FALSE	
         children [
            DirectionalLight {	
			   on TRUE
               ambientIntensity 0.8
            }


			#Bouton de lancement du programme
            DEF boutonLancement Transform {
               translation 0 0.025 -0.2
               children [
                  Shape {
                     appearance Appearance {
                        material Material {
                           diffuseColor 0.3 0.3 0.3
                        }
                     }

                     geometry Box {
                        size 0.08 0.04 0.000000001
                     }	
                  }


				  DEF toucheBoutonLancement TouchSensor {
					  
				  }
               ]
            }
         ]
      }
   ]
}  