#VRML V2.0 utf8

#DEF KS KeySensor {	eventsProcessed TRUE }
DEF KS KbdSensor {	isActive TRUE }	 # Dsactive l'interface clavier habituelle, except la touche d'chappement

Shape {
    geometry DEF TXT 
		Text {
			string ["La dernire action sur les touches du clavier est", "?"]
			fontStyle FontStyle	{
						   	justify	["MIDDLE", "MIDDLE"]
	    					family "TYPEWRITER"
	    					style "BOLD"
	    					size 0.5
					  }
	    }
}



DEF	SCR Script	{
    directOutput TRUE
    eventIn	SFInt32	kp  # kp = key press
	eventIn	SFInt32	kr  # kr = key release


    field MFString string [""]
	eventOut MFString output


    url ["javascript:
	function kp(val,ts){
		string[0]='La dernire action sur les touches du clavier est';
		string[1] = 'Touche '+val+' appuye';
		output = string;
	}

	 function kr(val,ts){
		string[0]='La dernire action sur les touches du clavier est';
		string[1] = 'Touche '+val+' relache';
		output = string;
	}
	"]
}

ROUTE  KS.keyDown TO SCR.kp
ROUTE  KS.keyUp TO SCR.kr
ROUTE SCR.output TO TXT.string


